…
```r
bl_1 %>% 
  filter(Indicator %in% kh_indicators)
```

```
## # A tibble: 432 × 4
##     Year Name                                                    Indicator Value
##    <dbl> <chr>                                                   <chr>     <dbl>
##  1  2010 Barro-Lee: Percentage of female population age 15+ wit… BAR.NOED…  36.6
##  2  2005 Barro-Lee: Percentage of female population age 15+ wit… BAR.NOED…  43.2
##  3  2000 Barro-Lee: Percentage of female population age 15+ wit… BAR.NOED…  50.8
##  4  1995 Barro-Lee: Percentage of female population age 15+ wit… BAR.NOED…  52.2
##  5  1990 Barro-Lee: Percentage of female population age 15+ wit… BAR.NOED…  58.6
##  6  1985 Barro-Lee: Percentage of female population age 15+ wit… BAR.NOED…  65.9
##  7  1980 Barro-Lee: Percentage of female population age 15+ wit… BAR.NOED…  71.6
##  8  1975 Barro-Lee: Percentage of female population age 15+ wit… BAR.NOED…  78.3
##  9  1970 Barro-Lee: Percentage of female population age 15+ wit… BAR.NOED…  83.3
## 10  2010 Barro-Lee: Percentage of population age 15+ with no ed… BAR.NOED…  25.7
## # ℹ 422 more rows
```
…
```r
bl_1 %>% 
  filter(Indicator %in% rsa_indicators)
```

```
## # A tibble: 36 × 4
##     Year Name                                                    Indicator Value
##    <dbl> <chr>                                                   <chr>     <dbl>
##  1  2010 Barro-Lee: Percentage of female population age 15+ wit… BAR.NOED…  36.6
##  2  2005 Barro-Lee: Percentage of female population age 15+ wit… BAR.NOED…  43.2
##  3  2000 Barro-Lee: Percentage of female population age 15+ wit… BAR.NOED…  50.8
##  4  1995 Barro-Lee: Percentage of female population age 15+ wit… BAR.NOED…  52.2
##  5  1990 Barro-Lee: Percentage of female population age 15+ wit… BAR.NOED…  58.6
##  6  1985 Barro-Lee: Percentage of female population age 15+ wit… BAR.NOED…  65.9
##  7  1980 Barro-Lee: Percentage of female population age 15+ wit… BAR.NOED…  71.6
##  8  1975 Barro-Lee: Percentage of female population age 15+ wit… BAR.NOED…  78.3
##  9  1970 Barro-Lee: Percentage of female population age 15+ wit… BAR.NOED…  83.3
## 10  2010 Barro-Lee: Percentage of population age 15+ with no ed… BAR.NOED…  25.7
## # ℹ 26 more rows
```
…
