…
```r
lyrics_2015 %>% 
  filter(Rank %in% 1:10) %>% 
  unnest_tokens(word, Lyrics)
```

```
## # A tibble: 4,413 × 4
##     Rank Song        Artist                           word    
##    <dbl> <chr>       <chr>                            <chr>   
##  1     1 uptown funk mark ronson featuring bruno mars this    
##  2     1 uptown funk mark ronson featuring bruno mars hit     
##  3     1 uptown funk mark ronson featuring bruno mars that    
##  4     1 uptown funk mark ronson featuring bruno mars ice     
##  5     1 uptown funk mark ronson featuring bruno mars cold    
##  6     1 uptown funk mark ronson featuring bruno mars michelle
##  7     1 uptown funk mark ronson featuring bruno mars pfeiffer
##  8     1 uptown funk mark ronson featuring bruno mars that    
##  9     1 uptown funk mark ronson featuring bruno mars white   
## 10     1 uptown funk mark ronson featuring bruno mars gold    
## # ℹ 4,403 more rows
```


```r
lyrics_2015 %>%
  filter(Rank %in% 1:10) %>%
  unnest_tokens(word, Lyrics, token = "words") %>%
  filter(!word %in% stop_words$word, str_detect(word, "[a-z]"))
```

```
## # A tibble: 1,777 × 4
##     Rank Song        Artist                           word    
##    <dbl> <chr>       <chr>                            <chr>   
##  1     1 uptown funk mark ronson featuring bruno mars hit     
##  2     1 uptown funk mark ronson featuring bruno mars ice     
##  3     1 uptown funk mark ronson featuring bruno mars cold    
##  4     1 uptown funk mark ronson featuring bruno mars michelle
##  5     1 uptown funk mark ronson featuring bruno mars pfeiffer
##  6     1 uptown funk mark ronson featuring bruno mars white   
##  7     1 uptown funk mark ronson featuring bruno mars gold    
##  8     1 uptown funk mark ronson featuring bruno mars hood    
##  9     1 uptown funk mark ronson featuring bruno mars girls   
## 10     1 uptown funk mark ronson featuring bruno mars girls   
## # ℹ 1,767 more rows
```
…
